{
  "project_info": {
    "project_number": "180367626420",
    "project_id": "qyou-edf12",
    "storage_bucket": "qyou-edf12.appspot.com"
  },
  "client": [
    {
      "client_info": {
        "mobilesdk_app_id": "1:180367626420:android:0270210cdd0f734c6d07e1",
        "android_client_info": {
          "package_name": "com.qyou.android"
        }
      },
      "oauth_client": [
        {
          "client_id": "180367626420-u4lb2n9ec5jje2h2orv39o0beskthrqc.apps.googleusercontent.com",
          "client_type": 3
        }
      ],
      "api_key": [
        {
          "current_key": "AIzaSyAZ3q-SfF0RjyimW-f3mqopq0aSW7Ds6Y8"
        }
      ],
      "services": {
        "appinvite_service": {
          "other_platform_oauth_client": [
            {
              "client_id": "180367626420-u4lb2n9ec5jje2h2orv39o0beskthrqc.apps.googleusercontent.com",
              "client_type": 3
            },
            {
              "client_id": "180367626420-rvlecaftpiqv1mtd0r37b3vgl9uoh8a2.apps.googleusercontent.com",
              "client_type": 2,
              "ios_info": {
                "bundle_id": "passbyit.codebird"
              }
            }
          ]
        }
      }
    }
  ],
  "configuration_version": "1"
}